^C:\USERS\DORU\REPOSITORIOS\COPIA\OSG_ESQUELETO_VS2015\STDAFX.CPP
C:\USERS\DORU\REPOSITORIOS\COPIA\OSG_ESQUELETO_VS2015\X64\RELEASE\OSG_ESQUELETO.PCH
C:\USERS\DORU\REPOSITORIOS\COPIA\OSG_ESQUELETO_VS2015\X64\RELEASE\VC140.PDB
C:\USERS\DORU\REPOSITORIOS\COPIA\OSG_ESQUELETO_VS2015\X64\RELEASE\STDAFX.OBJ
^C:\USERS\DORU\REPOSITORIOS\COPIA\OSG_ESQUELETO_VS2015\FUNCIONESAYUDA.CPP|C:\USERS\DORU\REPOSITORIOS\COPIA\OSG_ESQUELETO_VS2015\HUMANO.CPP|C:\USERS\DORU\REPOSITORIOS\COPIA\OSG_ESQUELETO_VS2015\OSG_ESQUELETO.CPP|C:\USERS\DORU\REPOSITORIOS\COPIA\OSG_ESQUELETO_VS2015\PUNTO.CPP
C:\USERS\DORU\REPOSITORIOS\COPIA\OSG_ESQUELETO_VS2015\X64\RELEASE\VC140.PDB
C:\USERS\DORU\REPOSITORIOS\COPIA\OSG_ESQUELETO_VS2015\X64\RELEASE\PUNTO.OBJ
C:\USERS\DORU\REPOSITORIOS\COPIA\OSG_ESQUELETO_VS2015\X64\RELEASE\OSG_ESQUELETO.OBJ
C:\USERS\DORU\REPOSITORIOS\COPIA\OSG_ESQUELETO_VS2015\X64\RELEASE\HUMANO.OBJ
C:\USERS\DORU\REPOSITORIOS\COPIA\OSG_ESQUELETO_VS2015\X64\RELEASE\FUNCIONESAYUDA.OBJ
^C:\USERS\DORU\REPOSITORIOS\COPIA\OSG_ESQUELETO_VS2015\PUNTO.CPP
C:\USERS\DORU\REPOSITORIOS\COPIA\OSG_ESQUELETO_VS2015\X64\RELEASE\VC140.PDB
^C:\USERS\DORU\REPOSITORIOS\COPIA\OSG_ESQUELETO_VS2015\FUNCIONESAYUDA.CPP|C:\USERS\DORU\REPOSITORIOS\COPIA\OSG_ESQUELETO_VS2015\HUMANO.CPP|C:\USERS\DORU\REPOSITORIOS\COPIA\OSG_ESQUELETO_VS2015\OSG_ESQUELETO.CPP
C:\USERS\DORU\REPOSITORIOS\COPIA\OSG_ESQUELETO_VS2015\X64\RELEASE\VC140.PDB
C:\USERS\DORU\REPOSITORIOS\COPIA\OSG_ESQUELETO_VS2015\X64\RELEASE\HUMANO.OBJ
^C:\USERS\DORU\REPOSITORIOS\COPIA\OSG_ESQUELETO_VS2015\HUMANO.CPP
C:\USERS\DORU\REPOSITORIOS\COPIA\OSG_ESQUELETO_VS2015\X64\RELEASE\HUMANO.OBJ
^C:\USERS\DORU\REPOSITORIOS\COPIA\OSG_ESQUELETO_VS2015\FUNCIONESAYUDA.CPP|C:\USERS\DORU\REPOSITORIOS\COPIA\OSG_ESQUELETO_VS2015\OSG_ESQUELETO.CPP
C:\USERS\DORU\REPOSITORIOS\COPIA\OSG_ESQUELETO_VS2015\X64\RELEASE\VC140.PDB
C:\USERS\DORU\REPOSITORIOS\COPIA\OSG_ESQUELETO_VS2015\X64\RELEASE\FUNCIONESAYUDA.OBJ
^C:\USERS\DORU\REPOSITORIOS\COPIA\OSG_ESQUELETO_VS2015\OSG_ESQUELETO.CPP
C:\USERS\DORU\REPOSITORIOS\COPIA\OSG_ESQUELETO_VS2015\X64\RELEASE\VC140.PDB
C:\USERS\DORU\REPOSITORIOS\COPIA\OSG_ESQUELETO_VS2015\X64\RELEASE\OSG_ESQUELETO.OBJ
^C:\USERS\DORU\REPOSITORIOS\COPIA\OSG_ESQUELETO_VS2015\FUNCIONESAYUDA.CPP
C:\USERS\DORU\REPOSITORIOS\COPIA\OSG_ESQUELETO_VS2015\X64\RELEASE\VC140.PDB
C:\USERS\DORU\REPOSITORIOS\COPIA\OSG_ESQUELETO_VS2015\X64\RELEASE\FUNCIONESAYUDA.OBJ
